Untitled
…
## Warning: `data_frame()` is deprecated, use `tibble()`.
## This warning is displayed once per session.

library(stringr)
tok99 = function(t) str_split(t,"[ ]{1,}")

td1 = unnest_tokens(text_df,word, text, token=tok99)
td2 = td1 %>%
  count(doc_id,word,sort=T) %>%
  ungroup() %>%
  bind_tf_idf(word,doc_id, n)
td_tfidf = arrange(td2,desc(tf_idf))
td_tfidf

## # A tibble: 33,459 x 6
##    doc_id word            n      tf   idf tf_idf
##     <int> <chr>       <int>   <dbl> <dbl>  <dbl>
##  1      7 "\"\","     2 0.0155   1.95 0.0302
##  2      7 "\"\","     2 0.0155   1.95 0.0302
##  3      7 "\"\","     2 0.0155   1.25 0.0194
##  4      7 "\"\","     1 0.00775  1.95 0.0151
##  5      7 "\"\","     1 0.00775  1.95 0.0151
##  6      7 "\"\","     1 0.00775  1.95 0.0151
##  7      7 "\"\","     1 0.00775  1.95 0.0151
##  8      7 "\"\","     1 0.00775  1.95 0.0151
##  9      7 "\"\","     1 0.00775  1.95 0.0151
## 10      7 "\"\","     1 0.00775  1.95 0.0151
## # ... with 33,449 more rows
…
